﻿{
  "name": "TestEmail",
  "task_schema_name": "Notify - Email",
  "task_dll_name": "BH.Workflow.Task.Email.dll",
  "is_active": true,
  "inputs": {
    "message": {
      "is_mapped": false,
      "process_variable": "",
      "value": {
        "to": "test@gmail.com",
        "subject": "This is a test Subject",
        "body": "This is a test Body",
        "attachments": []
      }
    }
  },
  "outputs": {},
  "task_execution_order": []
}